 Lektion -

 1
 2
 3
 4
 5
 6
 7
 8
 9
10
11
12
13
14
15

 1
 2
 3
 4
 5
 6
 7
 8
 9
10
11
12
13
14
15

(1)
(2)
(3)
(4)
(5)

Übung 1 - Übersetzen Sie bitte

1.
2.
3.
4.
5.
6.

Übung 2 - Ergänzen Sie bitte

1.
2.
3.
4.
5.
6.

1.
2.
3.
4.
5.
6.

Die Lösung
Ü1: 1. 2. 3. 4. 5. 6.
Ü2: 1. 2. 3. 4. 5. 6.
